DN,R1,R2,R3,lambda_a,lambda_is
300,0.15485,0.16195,0.225,50,0.026
250,0.1302,0.1365,0.2,50,0.026
200,0.10365,0.10955,0.1575,50,0.0238
150,0.07965,0.08415,0.125,50,0.0238
125,0.06585,0.06985,0.1125,50,0.0238
100,0.05355,0.05715,0.1,50,0.0238
80,0.04125,0.04445,0.08,50,0.0238
65,0.03515,0.03805,0.07,50,0.0238
50,0.02725,0.03015,0.0625,50,0.0238
